複数時点での処置の因果効果の推定 – Kentaro Kamada
…
6400
1
1
1
44

これを個人レベルのデータに変換

data_ind <- uncount(data_agg, N)

data_ind

# A tibble: 32,000 × 4
      A0    L1    A1     Y
   <dbl> <dbl> <dbl> <dbl>
 1     0     0     0    84
 2     0     0     0    84
 3     0     0     0    84
 4     0     0     0    84
 5     0     0     0    84
 6     0     0     0    84
 7     0     0     0    84
 8     0     0     0    84
 9     0     0     0    84
10     0     0     0    84
# ℹ 31,990 more rows
…
