手動でSuperlearner – Kentaro Kamada
…
result <- 
  data |> 
  mutate(
    pred1 = predict(model1)[,1],
    pred2 = predict(model2)
  ) |> 
  mutate(
    pred_sl = weight_normalized[1]*pred1 + weight_normalized[2]*pred2
  )

result

# A tibble: 1,000 × 7
       x epsilon y_truth      y pred1 pred2 pred_sl
   <dbl>   <dbl>   <dbl>  <dbl> <dbl> <dbl>   <dbl>
 1  5.77  -1.86     5.05  3.19   5.21  4.84    4.96
 2  7.01   1.16     6.01  7.18   6.36  6.57    6.51
 3  6.09  -4.30     5.01  0.712  5.16  5.00    5.05
 4  7.09  -0.353    6.19  5.83   6.56  6.75    6.69
 5  3.65   0.465   10.5  11.0    9.98 11.0    10.7 
 6  1.33  -0.677   18.8  18.2   20.0  19.5    19.7 
 7  2.60  -1.05    16.6  15.5   17.5  16.8    17.0 
 8  4.07   0.535    8.71  9.25   8.73  8.90    8.85
 9  5.82   7.05     5.03 12.1    5.20  4.85    4.96
10  7.92   2.30     8.68 11.0    8.52  8.20    8.30
# ℹ 990 more rows
…
